…
---





## Data cleaning
We start off the project by cleaning data set and creating new features. The newly created variable "time" measures the difference in time between the purchase time and the sign up time provided in the original data set 

### Training data set 
In this section we eliminating meaningless features first. For example, the user id, which I realized there's no repeated user id, thus we can eliminate the column from the fraud data.

```
## # A tibble: 151,112 x 2
##    user_id     n
##      <int> <int>
##  1       2     1
##  2       4     1
##  3       8     1
##  4       9     1
##  5      12     1
##  6      16     1
##  7      18     1
##  8      26     1
##  9      33     1
## 10      39     1
## # ... with 151,102 more rows
```
…
