…
    library(IPtoCountry)

    data1%>%
      filter (ip_address >= 16777216, ip_address<=3758096383)%>%
      mutate(country=IP_lookup(ip_address))%>%
      group_by(country)%>%
      summarize(prop=sum(num)/n(),number=n())%>%
      filter(number>=100, prop>=0.1)%>%
      arrange(desc(prop))

    ## # A tibble: 26 x 3
    ##    country       prop number
    ##    <chr>        <dbl>  <int>
    ##  1 Tunisia      0.263    118
    ##  2 Peru         0.258    120
    ##  3 Ecuador      0.257    109
    ##  4 New Zealand  0.226    279
    ##  5 Croatia      0.183    104
    ##  6 Lithuania    0.175    120
    ##  7 Hong Kong    0.165    514
    ##  8 Ireland      0.164    360
    ##  9 Chile        0.156    416
    ## 10 Saudi Arabia 0.152    349
    ## # ... with 16 more rows
…
The following table represents the frequency and number of fraud per
each device id which have been frauded for at least 5 times. So if the
fowllowing device, especially the ones that has fraud proportion =1.0,
then the stores can immediately say that this device is frauding.

    data1%>%
      group_by(device_id)%>%
      summarise(number_of_fraud=sum(num),prop=sum(num)/n())%>%
      filter(number_of_fraud>5)%>%
      arrange(desc(prop))

    ## # A tibble: 711 x 3
    ##    device_id     number_of_fraud  prop
    ##    <chr>                   <int> <dbl>
    ##  1 BQFVIFYBACRXO              12     1
    ##  2 EPILONTXYYWPF              14     1
    ##  3 GWTUHKHQXIXDI               9     1
    ##  4 HHSLZRTYDORAZ              12     1
    ##  5 HVWLAYPAUUDDP              13     1
    ##  6 IOVPBTEAMIPSI              13     1
    ##  7 JNKJQBMHCUZDB               9     1
    ##  8 LQOVYJCFDDWKF              14     1
    ##  9 MQGEVZIVNVZFL              11     1
    ## 10 NEDQGMKXTGBFF              11     1
    ## # ... with 701 more rows
